Source2FinalDeliverable
…
cleanup_country_year

# A tibble: 99 × 7
   country    country_clean region    year total_plastic total_volunteers
   <chr>      <chr>         <chr>    <dbl>         <dbl>            <dbl>
 1 Argentina  Argentina     Americas  2019          5336            66825
 2 Argentina  Argentina     Americas  2020          1086             2034
 3 Armenia    Armenia       Asia      2020             8               12
 4 Australia  Australia     Oceania   2019             6               10
 5 Australia  Australia     Oceania   2020          1668            13110
 6 Bangladesh Bangladesh    Asia      2019            32             2600
 7 Bangladesh Bangladesh    Asia      2020          2383            18034
 8 Benin      Benin         Africa    2019          9976             4656
 9 Benin      Benin         Africa    2020           342              916
10 Bhutan     Bhutan        Asia      2019          7000            26500
# ℹ 89 more rows
# ℹ 1 more variable: avg_efficiency <dbl>
…
